%YAML 1.1
%TAG !u! tag:unity3d.com,2011:
--- !u!114 &11400000
MonoBehaviour:
  m_ObjectHideFlags: 0
  m_CorrespondingSourceObject: {fileID: 0}
  m_PrefabInstance: {fileID: 0}
  m_PrefabAsset: {fileID: 0}
  m_GameObject: {fileID: 0}
  m_Enabled: 1
  m_EditorHideFlags: 0
  m_Script: {fileID: 11500000, guid: ce9954ebdb2892b4b8e772963e002903, type: 3}
  m_Name: ConnectionTask
  m_EditorClassIdentifier: 
  m_Probability: 0.5
  m_MinLevelStageToSpawn: 1
  m_MinTimeBeetwenEvents: 1
  m_TimeToFinish: 20
  m_TypeData: {fileID: 11400000, guid: dbe1ff440c07b7943985e1f9851457de, type: 2}
  m_TimeOnPause: 5
  m_TimeToStart: 5
