%YAML 1.1
%TAG !u! tag:unity3d.com,2011:
--- !u!114 &11400000
MonoBehaviour:
  m_ObjectHideFlags: 0
  m_CorrespondingSourceObject: {fileID: 0}
  m_PrefabInstance: {fileID: 0}
  m_PrefabAsset: {fileID: 0}
  m_GameObject: {fileID: 0}
  m_Enabled: 1
  m_EditorHideFlags: 0
  m_Script: {fileID: 11500000, guid: 4784b16731a474a4eb3ae147e78b539a, type: 3}
  m_Name: VirusAttackTask
  m_EditorClassIdentifier: 
  m_Probability: 1
  m_MinLevelStageToSpawn: 0
  m_MinTimeBeetwenEvents: 0
  m_TimeToFinishEvent: 1
  m_TypeData: {fileID: 11400000, guid: 33c87a5e685567e4cbaef978fd73f240, type: 2}
  m_StrikeTime: 10
