%YAML 1.1
%TAG !u! tag:unity3d.com,2011:
--- !u!114 &11400000
MonoBehaviour:
  m_ObjectHideFlags: 0
  m_CorrespondingSourceObject: {fileID: 0}
  m_PrefabInstance: {fileID: 0}
  m_PrefabAsset: {fileID: 0}
  m_GameObject: {fileID: 0}
  m_Enabled: 1
  m_EditorHideFlags: 0
  m_Script: {fileID: 11500000, guid: 4784b16731a474a4eb3ae147e78b539a, type: 3}
  m_Name: Hard_ComputerVirus_12-0 (2)
  m_EditorClassIdentifier: 
  m_Probability: 1
  m_MinLevelStageToSpawn: 12
  m_MaxLevelStageToSpawn: 0
  m_DamageCouse: Computer Virus
  m_DamageOnFail: 2
  m_PointsOnSuccess: 10
  m_MinTimeBeetwenEvents: 20
  m_TypeData: {fileID: 11400000, guid: e26f2897125cb80408a0f0e490cfab23, type: 2}
  m_MinStrikeTime: 7
  m_MaxStrikeTime: 9
  m_MinComputersCount: 2
  m_MaxComputersCount: 4
  m_MinConnectionCollections: 0
  m_MaxConnectionCollections: 0
  m_ConnectionsSelectorName: 
  m_VirusAttackColor: {r: 1, g: 0, b: 1, a: 1}
