%YAML 1.1
%TAG !u! tag:unity3d.com,2011:
--- !u!114 &11400000
MonoBehaviour:
  m_ObjectHideFlags: 0
  m_CorrespondingSourceObject: {fileID: 0}
  m_PrefabInstance: {fileID: 0}
  m_PrefabAsset: {fileID: 0}
  m_GameObject: {fileID: 0}
  m_Enabled: 1
  m_EditorHideFlags: 0
  m_Script: {fileID: 11500000, guid: ce9954ebdb2892b4b8e772963e002903, type: 3}
  m_Name: Ultimate_ConnectComputers_24-0 (1)
  m_EditorClassIdentifier: 
  m_Probability: 2
  m_MinLevelStageToSpawn: 24
  m_MaxLevelStageToSpawn: 0
  m_DamageCouse: Disconnected computers
  m_DamageOnFail: 1
  m_PointsOnSuccess: 15
  m_MinTimeBeetwenEvents: 20
  m_TypeData: {fileID: 11400000, guid: cab5ff68362eb3544af93befb92c8790, type: 2}
  m_MinConversationTime: 12
  m_MaxConversationTime: 16
  m_MinStartingFailTime: 10
  m_MaxStartingFailTime: 13
  m_FailTime: 6
  m_ComputersCount: 3
  m_MinAdditionalConnectionCollections: 0
  m_MaxAdditionalConnectionCollections: 0
  m_AdditionalConnectionsSelectorName: GeneralScateredItems
  m_SuccessColor: {r: 0, g: 1, b: 0, a: 1}
  m_FailedColor: {r: 1, g: 0, b: 0, a: 1}
