{
    "name": "NetInput",
    "maps": [
        {
            "name": "NetSystemExample",
            "id": "4da000ca-332f-48c6-b06b-9d7db591bd13",
            "actions": [
                {
                    "name": "SpawnNet",
                    "type": "Button",
                    "id": "04a3824d-e0e6-4023-b01f-414a81e9c2e5",
                    "expectedControlType": "Button",
                    "processors": "",
                    "interactions": "",
                    "initialStateCheck": false
                },
                {
                    "name": "PointerPosition",
                    "type": "Value",
                    "id": "8e7d7c27-cf3d-43a5-922e-bbe74daddd7a",
                    "expectedControlType": "Vector2",
                    "processors": "",
                    "interactions": "",
                    "initialStateCheck": true
                },
                {
                    "name": "SpawnFromDrag",
                    "type": "PassThrough",
                    "id": "333ea4e2-b46c-468a-abfa-628b92f8fa9c",
                    "expectedControlType": "Vector2",
                    "processors": "",
                    "interactions": "MouseDrag",
                    "initialStateCheck": true
                }
            ],
            "bindings": [
                {
                    "name": "",
                    "id": "184ab3e4-c8ff-4c0c-a83f-6b16f1a56919",
                    "path": "<Mouse>/leftButton",
                    "interactions": "",
                    "processors": "",
                    "groups": "",
                    "action": "SpawnNet",
                    "isComposite": false,
                    "isPartOfComposite": false
                },
                {
                    "name": "",
                    "id": "dde7cc50-40e4-45b2-857c-baf9d7868a8b",
                    "path": "<Mouse>/position",
                    "interactions": "",
                    "processors": "",
                    "groups": "",
                    "action": "PointerPosition",
                    "isComposite": false,
                    "isPartOfComposite": false
                },
                {
                    "name": "Mouse Drag",
                    "id": "3e62723b-f96b-49c0-83a8-d2a4311fbf19",
                    "path": "MouseDrag",
                    "interactions": "MouseDrag",
                    "processors": "",
                    "groups": "",
                    "action": "SpawnFromDrag",
                    "isComposite": true,
                    "isPartOfComposite": false
                },
                {
                    "name": "Button",
                    "id": "7b69aa45-fd34-4308-a968-892ef9269ff1",
                    "path": "<Mouse>/leftButton",
                    "interactions": "",
                    "processors": "",
                    "groups": "",
                    "action": "SpawnFromDrag",
                    "isComposite": false,
                    "isPartOfComposite": true
                },
                {
                    "name": "Axis1",
                    "id": "7dbb4edc-34b2-4a35-a41c-75063833b276",
                    "path": "<Mouse>/position/x",
                    "interactions": "",
                    "processors": "",
                    "groups": "",
                    "action": "SpawnFromDrag",
                    "isComposite": false,
                    "isPartOfComposite": true
                },
                {
                    "name": "Axis2",
                    "id": "7b00db0a-e5c5-4920-8389-f9b117329074",
                    "path": "<Mouse>/position/y",
                    "interactions": "",
                    "processors": "",
                    "groups": "",
                    "action": "SpawnFromDrag",
                    "isComposite": false,
                    "isPartOfComposite": true
                }
            ]
        }
    ],
    "controlSchemes": []
}