%YAML 1.1
%TAG !u! tag:unity3d.com,2011:
--- !u!114 &11400000
MonoBehaviour:
  m_ObjectHideFlags: 0
  m_CorrespondingSourceObject: {fileID: 0}
  m_PrefabInstance: {fileID: 0}
  m_PrefabAsset: {fileID: 0}
  m_GameObject: {fileID: 0}
  m_Enabled: 1
  m_EditorHideFlags: 0
  m_Script: {fileID: 11500000, guid: 338daea631a2b8c4e9401bb90e54f87b, type: 3}
  m_Name: FPPSpawnWallsTaskType
  m_EditorClassIdentifier: 
  m_EventType: 2
  m_MaxEventsCountOnScene: 2
